<?xml version="1.0" encoding="UTF-8" standalone="no"?>
<!-- Created with Inkscape (http://www.inkscape.org/) -->

<svg
   xmlns:dc="http://purl.org/dc/elements/1.1/"
   xmlns:cc="http://creativecommons.org/ns#"
   xmlns:rdf="http://www.w3.org/1999/02/22-rdf-syntax-ns#"
   xmlns:svg="http://www.w3.org/2000/svg"
   xmlns="http://www.w3.org/2000/svg"
   xmlns:sodipodi="http://sodipodi.sourceforge.net/DTD/sodipodi-0.dtd"
   xmlns:inkscape="http://www.inkscape.org/namespaces/inkscape"
   width="180.37735mm"
   height="132.70506mm"
   viewBox="0 0 180.37735 132.70506"
   version="1.1"
   id="svg8"
   inkscape:version="0.92+devel unknown"
   sodipodi:docname="display_&quot;screew&quot;.svg">
  <defs
     id="defs2" />
  <sodipodi:namedview
     id="base"
     pagecolor="#ffffff"
     bordercolor="#666666"
     borderopacity="1.0"
     inkscape:pageopacity="0.0"
     inkscape:pageshadow="2"
     inkscape:zoom="0.98994949"
     inkscape:cx="386.27708"
     inkscape:cy="300.6438"
     inkscape:document-units="mm"
     inkscape:current-layer="layer1"
     inkscape:document-rotation="0"
     showgrid="false"
     inkscape:measure-start="0,0"
     inkscape:measure-end="0,0"
     inkscape:window-width="1600"
     inkscape:window-height="836"
     inkscape:window-x="0"
     inkscape:window-y="0"
     inkscape:window-maximized="1"
     fit-margin-top="0"
     fit-margin-left="0"
     fit-margin-right="0"
     fit-margin-bottom="0" />
  <metadata
     id="metadata5">
    <rdf:RDF>
      <cc:Work
         rdf:about="">
        <dc:format>image/svg+xml</dc:format>
        <dc:type
           rdf:resource="http://purl.org/dc/dcmitype/StillImage" />
        <dc:title />
      </cc:Work>
    </rdf:RDF>
  </metadata>
  <g
     inkscape:label="Layer 1"
     inkscape:groupmode="layer"
     id="layer1"
     transform="translate(20.768019,-41.739094)">
    <rect
       style="opacity:1;fill:#ffffff;stroke-width:1.66499996;stroke-linecap:round"
       id="rect4290"
       width="180.37735"
       height="132.70506"
       x="-20.768019"
       y="41.739094" />
    <rect
       style="opacity:0.8;fill:#000080;stroke:none;stroke-width:1.34692264;stroke-linecap:round"
       id="rect4267"
       width="108.56094"
       height="2.5941229"
       x="26.706379"
       y="90.91143"
       ry="0" />
    <path
       style="fill:#6b5b6b;fill-opacity:1;stroke:none;stroke-width:0.26458332px;stroke-linecap:butt;stroke-linejoin:miter;stroke-opacity:1"
       d="m 26.70638,90.91143 -4.64255,0.101542 v 13.427158 h 122.22152 v -3.18896 H 26.749398 l -0.04302,-7.745617 z"
       id="path4271"
       inkscape:connector-curvature="0" />
    <rect
       style="opacity:0.8;fill:#6b5b6b;fill-opacity:1;stroke:none;stroke-width:1.66499996;stroke-linecap:round"
       id="rect4273"
       width="7.8640928"
       height="1.2021909"
       x="29.516579"
       y="93.505577" />
    <path
       style="fill:none;stroke:#000000;stroke-width:0.26458332px;stroke-linecap:butt;stroke-linejoin:miter;stroke-opacity:1"
       d="M 35.134198,94.155216 52.000366,80.577977"
       id="path4275"
       inkscape:connector-curvature="0" />
    <rect
       style="opacity:0.8;fill:#121112;fill-opacity:1;stroke:none;stroke-width:1.65794456;stroke-linecap:round"
       id="rect4277"
       width="7.8640957"
       height="6.5559282"
       x="29.516579"
       y="94.707771" />
    <path
       style="fill:none;stroke:#000000;stroke-width:0.26458332px;stroke-linecap:butt;stroke-linejoin:miter;stroke-opacity:1"
       d="M 36.003867,98.506959 47.66611,117.14666"
       id="path4279"
       inkscape:connector-curvature="0"
       sodipodi:nodetypes="cc" />
    <text
       xml:space="preserve"
       style="font-style:normal;font-weight:normal;font-size:4.23333311px;line-height:6.61458302px;font-family:sans-serif;letter-spacing:0px;word-spacing:0px;fill:#000000;fill-opacity:1;stroke:none;stroke-width:0.26458332"
       x="52.170021"
       y="111.88662"
       id="text4283"><tspan
         sodipodi:role="line"
         id="tspan4281"
         x="52.170021"
         y="111.88662"
         style="stroke-width:0.26458332">Magnet</tspan><tspan
         sodipodi:role="line"
         x="52.170021"
         y="118.50121"
         style="stroke-width:0.26458332"
         id="tspan4285">That holds display</tspan><tspan
         sodipodi:role="line"
         x="52.170021"
         y="125.11578"
         style="stroke-width:0.26458332"
         id="tspan4287">in place</tspan></text>
    <text
       xml:space="preserve"
       style="font-style:normal;font-weight:normal;font-size:4.23333311px;line-height:6.61458302px;font-family:sans-serif;letter-spacing:0px;word-spacing:0px;fill:#000000;fill-opacity:1;stroke:none;stroke-width:0.26458332"
       x="57.646957"
       y="73.387276"
       id="text4291"><tspan
         sodipodi:role="line"
         x="57.646957"
         y="73.387276"
         style="stroke-width:0.26458332"
         id="tspan4295">surface that is feromagnetic and</tspan><tspan
         sodipodi:role="line"
         x="57.646957"
         y="80.001862"
         style="stroke-width:0.26458332"
         id="tspan4301">can repulse the holding magnet by being </tspan><tspan
         sodipodi:role="line"
         x="57.646957"
         y="86.61644"
         style="stroke-width:0.26458332"
         id="tspan4303">magnetzied with current </tspan></text>
    <rect
       style="opacity:1;fill:#b37c4a;fill-opacity:1;stroke:none;stroke-width:1.6075213;stroke-linecap:round"
       id="rect4309"
       width="1.2625945"
       height="1.2022014"
       x="37.380672"
       y="93.505569" />
    <rect
       style="opacity:1;fill:#b37c4a;fill-opacity:1;stroke:none;stroke-width:1.72030509;stroke-linecap:round"
       id="rect4311"
       width="1.2754084"
       height="1.2150565"
       x="28.241169"
       y="93.505569" />
    <path
       style="fill:none;stroke:#000000;stroke-width:0.26458332px;stroke-linecap:butt;stroke-linejoin:miter;stroke-opacity:1"
       d="M 28.721289,94.121488 11.353681,65.572634"
       id="path4313"
       inkscape:connector-curvature="0"
       sodipodi:nodetypes="cc" />
    <text
       xml:space="preserve"
       style="font-style:normal;font-weight:normal;font-size:4.23333311px;line-height:6.61458302px;font-family:sans-serif;letter-spacing:0px;word-spacing:0px;fill:#000000;fill-opacity:1;stroke:none;stroke-width:0.26458332"
       x="-6.1443281"
       y="56.086689"
       id="text4317"><tspan
         sodipodi:role="line"
         id="tspan4315"
         x="-6.1443281"
         y="56.086689"
         style="stroke-width:0.26458332">coil to revers polorization</tspan><tspan
         sodipodi:role="line"
         x="-6.1443281"
         y="62.701271"
         style="stroke-width:0.26458332"
         id="tspan4319">of surface</tspan></text>
    <path
       style="fill:none;stroke:#000000;stroke-width:0.26458332px;stroke-linecap:butt;stroke-linejoin:miter;stroke-opacity:1"
       d="m 102.82382,92.546951 31.93953,32.010959"
       id="path4321"
       inkscape:connector-curvature="0"
       sodipodi:nodetypes="cc" />
    <text
       xml:space="preserve"
       style="font-style:normal;font-weight:normal;font-size:4.23333311px;line-height:6.61458302px;font-family:sans-serif;letter-spacing:0px;word-spacing:0px;fill:#000000;fill-opacity:1;stroke:none;stroke-width:0.26458332"
       x="132.15538"
       y="129.991"
       id="text4325"><tspan
         sodipodi:role="line"
         id="tspan4323"
         x="132.15538"
         y="129.991"
         style="stroke-width:0.26458332">Display</tspan></text>
    <path
       style="fill:none;stroke:#000000;stroke-width:0.26458332px;stroke-linecap:butt;stroke-linejoin:miter;stroke-opacity:1"
       d="m 99.331345,103.29641 -2.137111,39.04536"
       id="path4327"
       inkscape:connector-curvature="0" />
    <text
       xml:space="preserve"
       style="font-style:normal;font-weight:normal;font-size:4.23333311px;line-height:6.61458302px;font-family:sans-serif;letter-spacing:0px;word-spacing:0px;fill:#000000;fill-opacity:1;stroke:none;stroke-width:0.26458332"
       x="81.255157"
       y="152.60345"
       id="text4331"><tspan
         sodipodi:role="line"
         id="tspan4329"
         x="81.255157"
         y="152.60345"
         style="stroke-width:0.26458332">Metal body for apliance</tspan></text>
    <text
       xml:space="preserve"
       style="font-style:normal;font-weight:normal;font-size:4.23333311px;line-height:6.61458302px;font-family:sans-serif;letter-spacing:0px;word-spacing:0px;fill:#000000;fill-opacity:1;stroke:none;stroke-width:0.26458332"
       x="-6.2717814"
       y="127.06123"
       id="text4293"><tspan
         sodipodi:role="line"
         id="tspan4291"
         x="-6.2717814"
         y="127.06123"
         style="stroke-width:0.26458332">The Magnet</tspan><tspan
         sodipodi:role="line"
         x="-6.2717814"
         y="133.67581"
         style="stroke-width:0.26458332"
         id="tspan4296">is atached </tspan><tspan
         sodipodi:role="line"
         x="-6.2717814"
         y="140.29041"
         style="stroke-width:0.26458332"
         id="tspan4298">to the Metal</tspan><tspan
         sodipodi:role="line"
         x="-6.2717814"
         y="146.90498"
         style="stroke-width:0.26458332"
         id="tspan4300">body</tspan></text>
    <text
       xml:space="preserve"
       style="font-style:normal;font-weight:normal;font-size:4.23333311px;line-height:6.61458302px;font-family:sans-serif;letter-spacing:0px;word-spacing:0px;fill:#000000;fill-opacity:1;stroke:none;stroke-width:0.26458332"
       x="63.330009"
       y="53.828342"
       id="text4304"><tspan
         sodipodi:role="line"
         id="tspan4302"
         x="63.330009"
         y="53.828342"
         style="stroke-width:0.26458332">The Surface is glued to the </tspan><tspan
         sodipodi:role="line"
         x="63.330009"
         y="60.442924"
         style="stroke-width:0.26458332"
         id="tspan4306">Display</tspan></text>
  </g>
</svg>
